{
  "contact": {
    "schoolName": "IET  Jose Agustín Blanco Barros",
    "address": "Carrera 27 No. 9-115",
    "phone": "3004466429",
    "state": "Atlántico",
    "city": "Sabanalarga",
    "facebook": "https://www.facebook.com/joseagustin.blanco.376",
    "twitter": "https://twitter.com/5",
    "twitterEmbeded": "Mineducacion",
    "instagram": "https://www.instagram.com/?hl=es-la",
    "platform": "http://www.iejoseagustinb.edu.co/joseagustinbb/",
    "latitude": "10.6362196",
    "longitude": "-74.9122419"
  },
  "institutionalInfo": {
    "mission": "Formamos para la transformación, personas identificadas con la filosofía institucional, responsables, respetuosas, con amplio desarrollo de sus competencias cognitivas, afectivas, laborales y ciudadanas.",
    "vision": "En el 2016 seremos líderes en procesos educativos certificados, pertinentes y de excelentes resultados.",
    "historicalReview": "Reseña Historica nueva.",
    "shieldUrl": "http://192.168.0.115:4000/public/images/symbols/shield",
    "flagUrl": "http://192.168.0.115:4000/public/images/symbols/flag",
    "anthem": "Nuevo himno.",
    "campus": {
      "description": "SEGÚN DECRETO 1173 DE DICIEMBRE 17 DE 2012, SE CREO LA INSTITUCIÓN EDUCATIVA TÉCNICA JOSE AGUSTÍN BLANCO BARROS,INTEGRADA POR CUATRO SEDES",
      "list": [
        {
          "name": "LA ADMINISTRATIVA, ANTIGUO AMBROSIO PLAZA",
          "address": "CARRERA 27 CALLE 10",
          "description": "NIVELES DE EDUCACIÓN BÁSICA SECUNDARIA Y MEDIA TÉCNICA"
        },
        {
          "name": "FRANCISCO DE PAULA SANTANDER",
          "address": "CARRERA 22 CALLE",
          "description": "NIVELES PRE-ESCOLAR Y BÁSICA PRIMARIA"
        },
        {
          "name": "LA ESPERANZA",
          "address": "BARRIO ISABEL CRISTINA",
          "description": "NIVELES PRE-ESCOLAR Y BÁSICA PRIMARIA"
        },
        {
          "name": "SANTÍSIMA TRINIDAD DE CUMACO",
          "address": "VEREDA DE CUMACO",
          "description": "NIVELES PRE-ESCOLAR Y BASICA PRIMARIA"
        }
      ]
    }
  },
  "institutionalGoverment": {
    "adminCouncil": {
      "description": "El consejo directivo es el encargado de tomar  las decisiones relacionadas con el funcionamiento institucional: planear y evaluar el PEI, el currículo y el plan de estudios, adoptar el manual de convivencia, resolver  conflictos entre docentes y administrativos con los estudiantes: definir el uso de las instalaciones para la realización de actividades educativas, culturales, recreativas, deportivas y sociales, aprobar el presupuesto de ingresos y gastos, entre otras.\nSomething.",
      "members": [
        {
          "id": "xx2",
          "position": "Representante de los docentes",
          "name": "Edgar  martinez , Juan Victor Consuegra",
          "pictureUrl": "http://192.168.0.115:4000/public/images/members/default_member.jpg"
        },
        {
          "id": "xx3",
          "position": "Representante de los padres",
          "name": "George Ahumada",
          "pictureUrl": "http://192.168.0.115:4000/public/images/members/default_member.jpg"
        },
        {
          "id": "xx4",
          "position": "Representante sector productivo",
          "name": "Osvaldo Lechuga Corro",
          "pictureUrl": "http://192.168.0.115:4000/public/images/members/default_member.jpg"
        },
        {
          "id": "xx5",
          "position": "Representante de estudiantes",
          "name": "Yineth Vitola",
          "pictureUrl": "http://192.168.0.115:4000/public/images/members/default_member.jpg"
        },
        {
          "id": "xx6",
          "position": "Representante egresados",
          "name": "Daniela Contreras",
          "pictureUrl": "http://192.168.0.115:4000/public/images/members/default_member.jpg"
        },
        {
          "name": "Luz Castro Mendoza",
          "position": "Presidente",
          "pictureUrl": "http://192.168.0.115:4000/public/images/members/default_member.jpg",
          "id": "admin-council-1582172256120-0"
        }
      ]
    },
    "academicCouncil": {
      "description": "El  consejo académico es el responsable de la organización, orientación pedagógica, ejecución y mejoramiento continuo del plan de estudios: así como de revisar y hacer ajustes al currículo y participar en la evaluación institucional  anual.",
      "members": [
        {
          "id": "xx7",
          "position": "Presidente",
          "name": "Magola Alvarez Lozano",
          "pictureUrl": "http://192.168.0.115:4000/public/images/members/default_member.jpg"
        },
        {
          "id": "xx8",
          "position": "Vicepresidente",
          "name": "Jose Carlos Ahumada Sulbaran",
          "pictureUrl": "http://192.168.0.115:4000/public/images/members/default_member.jpg"
        },
        {
          "name": "dsadasdasd",
          "position": "asdadfx",
          "pictureUrl": "http://192.168.0.115:4000/public/images/members/default_member.jpg",
          "id": "academic-council-1582225303562-2"
        },
        {
          "name": "dsadasdrasda",
          "position": "qewedssawd",
          "pictureUrl": "http://192.168.0.115:4000/public/images/members/default_member.jpg",
          "id": "academic-council-1582225303562-3"
        }
      ]
    },
    "studentCouncil": {
      "description": "Es la instancia de participación de los estudiantes  en la vida institucional.",
      "members": [
        {
          "name": "Someone",
          "position": "pos",
          "grade": "7-3",
          "pictureUrl": "http://192.168.0.115:4000/public/images/members/default_member.jpg",
          "id": "student-council-1582240951890-0"
        }
      ]
    },
    "schoolLifeCouncil": {
      "description": "Detalle de la descripción",
      "members": [
        {
          "id": "xx15",
          "position": "Presidente",
          "name": "Pedrito",
          "pictureUrl": "http://192.168.0.115:4000/public/images/members/default_member.jpg"
        },
        {
          "id": "xx16",
          "position": "Vicepresidente",
          "name": "Juanchito",
          "pictureUrl": "http://192.168.0.115:4000/public/images/members/default_member.jpg"
        }
      ]
    }
  },
  "blogs": [
    {
      "id": "xx17",
      "name": "Matemáticas",
      "link": "El link",
      "pictureUrl": "http://192.168.0.115:4000/public/images/blogs/default_blog.jpg"
    }
  ],
  "professors": [
    {
      "id": "xx18",
      "name": "El profesor",
      "area": "Calculo",
      "pictureUrl": "http://192.168.0.115:4000/public/images/members/default_member.jpg"
    },
    {
      "name": "Julian",
      "area": "Programación",
      "pictureUrl": "http://192.168.0.115:4000/public/images/members/professor-1582243215729-0",
      "id": "professor-1582243215729-0"
    }
  ],
  "rules": {
    "description": "Detalle de la descripción.",
    "content": "Detalle de contenido."
  }
}
